10 -> 2 : 78 -> 1001110 | 456 -> 111001000 | 432 -> 110110000 | 545 -> 1000100001 | 66 -> 1000010
10 -> 2 : 239 -> 11101111 | 346 -> 101011010 | 356 -> 101100100 | 1 -> 1 | 7 -> 111
10 -> 2 : 10 -> 1010 | 0 -> 0 | 21 -> 10101 | 8 -> 1000 | 14 -> 1110
10 -> 2 : 566 -> 1000110110 | 11 -> 1011 | 98 -> 1100010 | 47 -> 101111 | 228 -> 11100100
Z -> 10 : 101 -> 4 | 1000101 -> 25 | 100 -> 3 | 1 -> 1 | 10010 -> 10
Z -> 10 : 100101 -> 17 | 10101 -> 12 | 1010010 -> 31 | 1010000 -> 29 | 100010 -> 15
Z -> 10 : 10010101 -> 46 | 10001 -> 9 | 10001010101 -> 177 | 10101 -> 12 | 0 -> 0
Z -> 10 : 1000 -> 5 | 101000 -> 18 | 100001 -> 14 | 10010101 -> 46 | 10010101001 -> 197
